{
	"info": {
		"_postman_id": "9be78506-e886-4ed4-bea2-2854a822ea9f",
		"name": "poll",
		"schema": "https://schema.getpostman.com/json/collection/v2.1.0/collection.json"
	},
	"item": [
		{
			"name": "get item",
			"request": {
				"auth": {
					"type": "bearer",
					"bearer": [
						{
							"key": "token",
							"value": "eyJ0eXAiOiJKV1QiLCJhbGciOiJIUzI1NiJ9.eyJpc3MiOiJodHRwOlwvXC8xMjcuMC4wLjFcL2FwaVwvYXV0aFwvbG9naW4iLCJpYXQiOjE2MDUwOTA2MDUsImV4cCI6MTYwNTA5NDIwNSwibmJmIjoxNjA1MDkwNjA1LCJqdGkiOiJHdGJScjRFcmRFcFg5U25CIiwic3ViIjoxLCJwcnYiOiIyM2JkNWM4OTQ5ZjYwMGFkYjM5ZTcwMWM0MDA4NzJkYjdhNTk3NmY3In0.YpLKfqwvSv8g1REkz_-PM9jAv0jfCzY9G2y97RY1xsA",
							"type": "string"
						}
					]
				},
				"method": "GET",
				"header": [],
				"url": {
					"raw": "http://127.0.0.1/api/questions/2",
					"protocol": "http",
					"host": [
						"127",
						"0",
						"0",
						"1"
					],
					"path": [
						"api",
						"questions",
						"2"
					],
					"query": [
						{
							"key": "token",
							"value": "eyJ0eXAiOiJKV1QiLCJhbGciOiJIUzI1NiJ9.eyJpc3MiOiJodHRwOlwvXC8xMjcuMC4wLjFcL2FwaVwvYXV0aFwvbG9naW4iLCJpYXQiOjE2MDUwOTA2MDUsImV4cCI6MTYwNTA5NDIwNSwibmJmIjoxNjA1MDkwNjA1LCJqdGkiOiJHdGJScjRFcmRFcFg5U25CIiwic3ViIjoxLCJwcnYiOiIyM2JkNWM4OTQ5ZjYwMGFkYjM5ZTcwMWM0MDA4NzJkYjdhNTk3NmY3In0.YpLKfqwvSv8g1REkz_-PM9jAv0jfCzY9G2y97RY1xsA",
							"disabled": true
						}
					]
				}
			},
			"response": []
		},
		{
			"name": "get all",
			"protocolProfileBehavior": {
				"disableBodyPruning": true
			},
			"request": {
				"auth": {
					"type": "bearer",
					"bearer": [
						{
							"key": "token",
							"value": "eyJ0eXAiOiJKV1QiLCJhbGciOiJIUzI1NiJ9.eyJpc3MiOiJodHRwOlwvXC8xMjcuMC4wLjFcL2FwaVwvYXV0aFwvbG9naW4iLCJpYXQiOjE2MDUxNzAyMTUsImV4cCI6MTYwNTE3MzgxNSwibmJmIjoxNjA1MTcwMjE1LCJqdGkiOiJ6ak84V0NVZkVncmhuc3ZEIiwic3ViIjoxLCJwcnYiOiIyM2JkNWM4OTQ5ZjYwMGFkYjM5ZTcwMWM0MDA4NzJkYjdhNTk3NmY3In0.Wd8KM99GQ1nEZYCl99SYkWX9lcoAJbp6JeQ4Q6qZPlk",
							"type": "string"
						}
					]
				},
				"method": "GET",
				"header": [],
				"body": {
					"mode": "raw",
					"raw": ""
				},
				"url": {
					"raw": "http://127.0.0.1/api/questions?&skip=0&take=1",
					"protocol": "http",
					"host": [
						"127",
						"0",
						"0",
						"1"
					],
					"path": [
						"api",
						"questions"
					],
					"query": [
						{
							"key": null,
							"value": null
						},
						{
							"key": "skip",
							"value": "0"
						},
						{
							"key": "token",
							"value": "eyJ0eXAiOiJKV1QiLCJhbGciOiJIUzI1NiJ9.eyJpc3MiOiJodHRwOlwvXC8xMjcuMC4wLjFcL2FwaVwvYXV0aFwvbG9naW4iLCJpYXQiOjE2MDUwOTAwNzUsImV4cCI6MTYwNTA5MzY3NSwibmJmIjoxNjA1MDkwMDc1LCJqdGkiOiJidGRxWmdobnFaT2ZXZHNCIiwic3ViIjoxLCJwcnYiOiIyM2JkNWM4OTQ5ZjYwMGFkYjM5ZTcwMWM0MDA4NzJkYjdhNTk3NmY3In0.Z4BiiGPQbP7hguaKKY3_i98kHuXSacA5pjGh-F9G9hk",
							"disabled": true
						},
						{
							"key": "take",
							"value": "1"
						}
					]
				}
			},
			"response": []
		},
		{
			"name": "answer",
			"request": {
				"auth": {
					"type": "bearer",
					"bearer": [
						{
							"key": "token",
							"value": "eyJ0eXAiOiJKV1QiLCJhbGciOiJIUzI1NiJ9.eyJpc3MiOiJodHRwOlwvXC8xMjcuMC4wLjFcL2FwaVwvYXV0aFwvbG9naW4iLCJpYXQiOjE2MDUxNzAyMTUsImV4cCI6MTYwNTE3MzgxNSwibmJmIjoxNjA1MTcwMjE1LCJqdGkiOiJ6ak84V0NVZkVncmhuc3ZEIiwic3ViIjoxLCJwcnYiOiIyM2JkNWM4OTQ5ZjYwMGFkYjM5ZTcwMWM0MDA4NzJkYjdhNTk3NmY3In0.Wd8KM99GQ1nEZYCl99SYkWX9lcoAJbp6JeQ4Q6qZPlk",
							"type": "string"
						}
					]
				},
				"method": "POST",
				"header": [],
				"body": {
					"mode": "formdata",
					"formdata": [
						{
							"key": "answers[0][question_id]",
							"value": "1",
							"type": "text"
						},
						{
							"key": "answers[0][variant_id]",
							"value": "1",
							"type": "text"
						},
						{
							"key": "answers[0][answer]",
							"value": "Hello",
							"type": "text",
							"disabled": true
						},
						{
							"key": "answers[1][answer]",
							"value": "world",
							"type": "text",
							"disabled": true
						},
						{
							"key": "answers[1][question_id]",
							"value": "1",
							"type": "text"
						},
						{
							"key": "answers[1][variant_id]",
							"value": "2",
							"type": "text"
						},
						{
							"key": "answers[1][bariant_id]",
							"value": "2",
							"type": "text",
							"disabled": true
						}
					],
					"options": {
						"raw": {
							"language": "json"
						}
					}
				},
				"url": {
					"raw": "http://127.0.0.1/api/questions/1/answers",
					"protocol": "http",
					"host": [
						"127",
						"0",
						"0",
						"1"
					],
					"path": [
						"api",
						"questions",
						"1",
						"answers"
					],
					"query": [
						{
							"key": "token",
							"value": "eyJ0eXAiOiJKV1QiLCJhbGciOiJIUzI1NiJ9.eyJpc3MiOiJodHRwOlwvXC8xMjcuMC4wLjFcL2FwaVwvYXV0aFwvbG9naW4iLCJpYXQiOjE2MDUwOTA2MDUsImV4cCI6MTYwNTA5NDIwNSwibmJmIjoxNjA1MDkwNjA1LCJqdGkiOiJHdGJScjRFcmRFcFg5U25CIiwic3ViIjoxLCJwcnYiOiIyM2JkNWM4OTQ5ZjYwMGFkYjM5ZTcwMWM0MDA4NzJkYjdhNTk3NmY3In0.YpLKfqwvSv8g1REkz_-PM9jAv0jfCzY9G2y97RY1xsA",
							"disabled": true
						}
					]
				}
			},
			"response": []
		},
		{
			"name": "login",
			"request": {
				"method": "POST",
				"header": [],
				"body": {
					"mode": "raw",
					"raw": "{\n    \"email\": \"admin@codechief.org\",\n    \"password\": \"password\"\n}",
					"options": {
						"raw": {
							"language": "json"
						}
					}
				},
				"url": {
					"raw": "http://127.0.0.1/api/auth/login",
					"protocol": "http",
					"host": [
						"127",
						"0",
						"0",
						"1"
					],
					"path": [
						"api",
						"auth",
						"login"
					],
					"query": [
						{
							"key": "token",
							"value": "LzFqqgXFULKhZCce8vaHlATUbPwtMc38rLM38MpI2mWF9jofJ5V3GXajP4szLMc5",
							"disabled": true
						}
					]
				}
			},
			"response": []
		}
	],
	"protocolProfileBehavior": {}
}